{
    "location":"/home/jmalloy1/results/bench_suite2",
    "run":
    [
        {
            "jdk":["/home/jmalloy1/jvms/jdk"],
            "dacapo_location":["/home/jmalloy1/benchmarks/java/dacapo/dacapo-evaluation-git+309e1fa.jar"],
            "benchmark":["dacapo_samples"],
            "process_count":[1],
            "iteration":[1,2,3,4,5],
            "jvm_description":["Default jdk 20"],
            "jacob_memory_printing":["False"],
            "memory_config":["2022","4044","8088","16176"],
            "dacapo_benchmark":["h2"],
            "gc":["zgc"]
        },
        {
            "jdk":["/home/jmalloy1/jvms/jdk"],
            "dacapo_location":["/home/jmalloy1/benchmarks/java/dacapo/dacapo-evaluation-git+309e1fa.jar"],
            "benchmark":["dacapo_samples"],
            "process_count":[1],
            "iteration":[1,2,3,4,5],
            "jvm_description":["Default jdk 20"],
            "jacob_memory_printing":["False"],
            "memory_config":["1318","2636","5272","10544"],
            "dacapo_benchmark":["jython"],
            "gc":["zgc"]
        },
        {
            "jdk":["/home/jmalloy1/jvms/jdk"],
            "dacapo_location":["/home/jmalloy1/benchmarks/java/dacapo/dacapo-evaluation-git+309e1fa.jar"],
            "benchmark":["dacapo_samples"],
            "process_count":[1],
            "iteration":[1,2,3,4,5],
            "jvm_description":["Default jdk 20"],
            "jacob_memory_printing":["False"],
            "memory_config":["30","60","120","240"],
            "dacapo_benchmark":["luindex"],
            "gc":["zgc"]
        },
        {
            "jdk":["/home/jmalloy1/jvms/jdk"],
            "dacapo_location":["/home/jmalloy1/benchmarks/java/dacapo/dacapo-evaluation-git+309e1fa.jar"],
            "benchmark":["dacapo_samples"],
            "process_count":[1],
            "iteration":[1,2,3,4,5],
            "jvm_description":["Default jdk 20"],
            "jacob_memory_printing":["False"],
            "memory_config":["28","46","92","184"],
            "dacapo_benchmark":["lusearch"],
            "gc":["zgc"]
        },
        {
            "jdk":["/home/jmalloy1/jvms/jdk"],
            "dacapo_location":["/home/jmalloy1/benchmarks/java/dacapo/dacapo-evaluation-git+309e1fa.jar"],
            "benchmark":["dacapo_samples"],
            "process_count":[1],
            "iteration":[1,2,3,4,5],
            "jvm_description":["Default jdk 20"],
            "jacob_memory_printing":["False"],
            "memory_config":["298","596","1192","2384"],
            "dacapo_benchmark":["pmd"],
            "gc":["zgc"]
        },
        {
            "jdk":["/home/jmalloy1/jvms/jdk"],
            "dacapo_location":["/home/jmalloy1/benchmarks/java/dacapo/dacapo-evaluation-git+309e1fa.jar"],
            "benchmark":["dacapo_samples"],
            "process_count":[1],
            "iteration":[1,2,3,4,5],
            "jvm_description":["Default jdk 20"],
            "jacob_memory_printing":["False"],
            "memory_config":["98","196","392","784"],
            "dacapo_benchmark":["sunflow"],
            "gc":["zgc"]
        },
        {
            "jdk":["/home/jmalloy1/jvms/jdk"],
            "dacapo_location":["/home/jmalloy1/benchmarks/java/dacapo/dacapo-evaluation-git+309e1fa.jar"],
            "benchmark":["dacapo_samples"],
            "process_count":[1],
            "iteration":[1,2,3,4,5],
            "jvm_description":["Default jdk 20"],
            "jacob_memory_printing":["False"],
            "memory_config":["48","96","192","384"],
            "dacapo_benchmark":["xalan"],
            "gc":["zgc"]
        },
        {
            "jdk":["/home/jmalloy1/jvms/jdk"],
            "dacapo_location":["/home/jmalloy1/benchmarks/java/dacapo/dacapo-evaluation-git+309e1fa.jar"],
            "benchmark":["dacapo_samples"],
            "process_count":[1],
            "iteration":[1,2,3,4,5],
            "jvm_description":["Default jdk 20"],
            "jacob_memory_printing":["False"],
            "memory_config":["220","440","880","1760"],
            "dacapo_benchmark":["zxing"],
            "gc":["zgc"]
        },
        {
            "jdk":["/home/jmalloy1/jvms/jdk"],
            "dacapo_location":["/home/jmalloy1/benchmarks/java/dacapo/dacapo-evaluation-git+309e1fa.jar"],
            "benchmark":["dacapo_samples"],
            "process_count":[1],
            "iteration":[1,2,3,4,5],
            "jvm_description":["Default jdk 20"],
            "jacob_memory_printing":["False"],
            "memory_config":["2020","4040","8080","16160"],
            "dacapo_benchmark":["fop"],
            "gc":["zgc"]
        },
        {
            "jdk":["/home/jmalloy1/jvms/jdk"],
            "dacapo_location":["/home/jmalloy1/benchmarks/java/dacapo/dacapo-evaluation-git+309e1fa.jar"],
            "benchmark":["dacapo_samples"],
            "process_count":[1],
            "iteration":[1,2,3,4,5],
            "jvm_description":["Default jdk 20"],
            "jacob_memory_printing":["False"],
            "memory_config":["4308","8616","17232","34464"],
            "dacapo_benchmark":["jme"],
            "gc":["zgc"]
        }
    ],
    "collect":{

    }
}
