{
    "location":"/home/jmalloy1/results/bench_suite2",
    "run":
    [
        {
            "jdk":["/home/jmalloy1/jvms/jdk-marking-latency-printing"],
            "dacapo_location":["/home/jmalloy1/benchmarks/java/dacapo/dacapo-evaluation-git+309e1fa.jar"],
            "benchmark":["dacapo_samples"],
            "process_count":[1],
            "iteration":[1,2,3,4,5],
            "jacob_gc_pause_time":[0,1,10,100,1000,10000,100000],
            "jvm_description":["Increased marking frequency"],
            "jacob_memory_printing":["True"],
            "memory_config":["default"],
            "dacapo_benchmark":["h2","jython","luindex","lusearch","pmd","sunflow","xalan","zxing","fop","jme"],
            "gc":["zgc"]
        }
    ],
    "collect":{

    }
}
