{
    "location":"/home/jmalloy1/tmp/bench_suite",
    "run":
    [
        {
            "jdk":["/home/jmalloy1/jvms/jdk-marking-latency"],
            "dacapo_location":["/home/jmalloy1/benchmarks/java/dacapo/dacapo-evaluation-git+309e1fa.jar"],
            "benchmark":["dacapo_samples"],
            "process_count":[1],
            "iteration":[1],
            "jvm_description":["Printing memory_info as well as increased marking frequency"],
            "jacob_memory_printing":["True"],
            "memory_config":["default"],
            "dacapo_benchmark":["h2","jython","luindex","lusearch","pmd","sunflow","xalan","zxing","fop","jme"],
            "gc":["zgc"]
        },
        {
            "jdk":["/home/jmalloy1/jvms/usable-printing"],
            "dacapo_location":["/home/jmalloy1/benchmarks/java/dacapo/dacapo-evaluation-git+309e1fa.jar"],
            "benchmark":["dacapo_samples"],
            "process_count":[1],
            "iteration":[1],
            "jvm_description":["Printing memory_info with default jvm"],
            "jacob_memory_printing":["True"],
            "memory_config":["default"],
            "dacapo_benchmark":["h2","jython","luindex","lusearch","pmd","sunflow","xalan","zxing","fop","jme"],
            "gc":["zgc"]
        }
    ],
    "collect":{

    }
}
